<?xml version="1.0" encoding="UTF-8" standalone="no"?>
<!-- Created with Inkscape (http://www.inkscape.org/) -->

<svg
   xmlns:dc="http://purl.org/dc/elements/1.1/"
   xmlns:cc="http://creativecommons.org/ns#"
   xmlns:rdf="http://www.w3.org/1999/02/22-rdf-syntax-ns#"
   xmlns:svg="http://www.w3.org/2000/svg"
   xmlns="http://www.w3.org/2000/svg"
   xmlns:xlink="http://www.w3.org/1999/xlink"
   xmlns:sodipodi="http://sodipodi.sourceforge.net/DTD/sodipodi-0.dtd"
   xmlns:inkscape="http://www.inkscape.org/namespaces/inkscape"
   width="4.196125mm"
   height="4.2333331mm"
   viewBox="0 0 4.196125 4.2333331"
   version="1.1"
   id="svg8"
   inkscape:version="0.92.5 (2060ec1f9f, 2020-04-08)"
   sodipodi:docname="logo-icons-playground.svg">
  <defs
     id="defs2" />
  <sodipodi:namedview
     id="base"
     pagecolor="#ffffff"
     bordercolor="#666666"
     borderopacity="1.0"
     inkscape:pageopacity="0.0"
     inkscape:pageshadow="2"
     inkscape:zoom="4"
     inkscape:cx="-98.865101"
     inkscape:cy="28.13863"
     inkscape:document-units="px"
     inkscape:current-layer="layer1"
     showgrid="true"
     showborder="true"
     inkscape:window-width="2560"
     inkscape:window-height="1370"
     inkscape:window-x="1920"
     inkscape:window-y="34"
     inkscape:window-maximized="1"
     inkscape:snap-path-clip="true"
     objecttolerance="20"
     inkscape:snap-global="true">
    <inkscape:grid
       type="xygrid"
       id="grid4528"
       spacingx="0.26458333"
       empspacing="4"
       snapvisiblegridlinesonly="false"
       originx="-24.359753"
       originy="-195.79171"
       enabled="true"
       visible="true" />
  </sodipodi:namedview>
  <metadata
     id="metadata5">
    <rdf:RDF>
      <cc:Work
         rdf:about="">
        <dc:format>image/svg+xml</dc:format>
        <dc:type
           rdf:resource="http://purl.org/dc/dcmitype/StillImage" />
        <dc:title></dc:title>
      </cc:Work>
    </rdf:RDF>
  </metadata>
  <g
     inkscape:label="Layer 1"
     inkscape:groupmode="layer"
     id="layer1"
     transform="translate(-24.359753,-96.974958)">
    <rect
       style="fill:#4d4d4d;fill-opacity:0;stroke-width:0.52916664;stroke-miterlimit:4;stroke-dasharray:none"
       id="rect5025"
       width="4.2333331"
       height="4.2333331"
       x="10.993128"
       y="104.3441" />
    <path
       style="fill:#eeeeee;fill-opacity:1;stroke-width:0.26458332"
       d="m 40.216667,102.26667 c 2.116667,0 4.233333,0 6.35,0 0,2.11667 0,4.23333 0,6.35 -2.116667,0 -4.233333,0 -6.35,0 0,-2.11667 0,-4.23333 0,-6.35 z"
       id="rect4518"
       inkscape:connector-curvature="0"
       sodipodi:insensitive="true" />
    <image
       y="103.325"
       x="53.974998"
       id="image4542"
       xlink:href="data:image/png;base64,iVBORw0KGgoAAAANSUhEUgAAAMkAAAA7CAYAAADRnK4XAAAABHNCSVQICAgIfAhkiAAAAAlwSFlz AAAOxAAADsQBlSsOGwAAABl0RVh0U29mdHdhcmUAd3d3Lmlua3NjYXBlLm9yZ5vuPBoAABHGSURB VHic7Z17dFxVvce/331mUpo+kpwzk6Zpk6Zc4IKBttCoKEIFKeta8MpLQGCBSAG5sLxeRXygiOiF C4gu5S4eFkFAuF3iLaAICtXypoUCbRWvlUdKUtuYydkzmaRpm5mzf/ePmWkmz5kkk0yYns9aWevM OfvxPZnzm7P3/v323kQBkQ33LwT3LIOSIyHqEMA0QGiDmAFAQdAFhTjAFoh5G6LeBJPPo9nZwrPO 8gqpxcenUHC8BcjLqw5D0HwWwDkQNoyxmBiIX0OwGs2V63yD8ZlKjNlI5NU7jgGsqwCsGE85gxXJ Nni8DZb8jE2X9RSsXB+fMTLqh1vW33swrMSPAJw0AXqyKpKdsNQ1OGrlgyRlQuvy8RmBvI1E1l0X wMy53wL4VQDBCdQ0AD6Dsumf5+Lzt09enT4+feRlJPKne+qw13sQIkdPtKBh0FDqEi5d+Zsi1e+z H5PTSOSVnzYC8jjIeZMhaCQpoHyfTZd9r8g6fPYzRjQSWX/70bCCjwMye7IE5YY384OXfKvYKnz2 H4Y1Enn1jsMBay0AexL15IfwWn7okv8qtgyf/YMhjUQ23jUXwvUA5k6ynvyxcAGPunR1sWX4lD5q 4AlZd10AUL/AVDYQAPBwh6y/8wPFluFT+gwyEsyo/TpEji2CltEyAwHr/pRR+/hMHP2MRDbcdwiI q4slZtSILEJ57ReLLcOntOn/JlF7fwjggOJIGSMK35LX7wkXW4ZP6bLPSGTDnR/BRIeaTAwz4SW+ VGwRPqVL35vEsr5ZRB3jhJfLxrsqiq3CpzRRACAv39sAkeXFFjMOZsJTZxZbhE9pknqTBHo/h6FG ut5PKFxQbAk+pUnKMIhTi6yjAMiH/Q68z0SgZNN98yAsBaecguctK7YIn9JDIZkooQfLHFNsBT6l h4KYxcUWUTjUocVW4FN6BAA0jnDdA+QdgG+B0gKjdoKmG8baA2UMhDMBmQ1iDsiDIXIYihnzJaYU mo0+U4wAwFpg3xTyJIBXAHkawnWYdsBmLr5g18BM6923Zpd3l1m99ZHuJjYlsq/JS3cfBAsfh5Iz ADkekzlqRoZFhP6ceJ9CQnnlrncBbkIAD4LBP/DIi2Iiov7cvv1wz8hSRVkkVIdBZB6IOgjKB5TR JSLtAN5UipsN8Eqwo2tdY2Njr7z+s1p4yUsBdeWkTdzaazn82MVdk1KXz34BZeNdITZd1rHefWv2 jMS0T3rAaSSWQeCMo9hOgfmdMly1qLb+OXnpbhtl3pcgvALArIKp7083iDWAfNFfisinkPCNndtW kGolyRMhUvDgRoIvGsqNS+bUPyUb/tuBmnYlxFwIcn4Biu+CYC0CeBw91qP+G8RnIuCWf7R0imD6 hNckfJnKfG/RnAVrRa5T2DjnOEAtB9WxEFmC3NHHBpDtEL4GwQYg+Spmhjaw8azeN6LNldxjnaYU zp3V431q4cKFeyb8fnz2G7i5rbUFkJrJq1L+BuHPkxYfXVpd9zYAiFyn8Mb8OiR66xEIVICYlk6c QG+yHWXTWtDZ2s7jr0tmStmyo/lQoXW8ACdS8SSITAPQtbimfhzNRB+fwXBzW8sWAEXxL4igGcBL ILaImL/RYActxBKmrCuoepQkD6iEJZVQUgXBPIr6AJQ0ArIIgkEhKCLyzpK5Cw4rwq34lDABEbxF FsdISCwEsBDAeaQCrNT5oEoCKAMDJnUiM6BLkzVaPWSJf5korT77LwFlqb+IMZ8qtpBCoBQ3F1uD z9RBRMq01p/OfO7p6Xm8rq5u92jLCUCp12BMYdUVC4NXiy3BZ+rQ1dU1C8AvM5+nT58+H8DfR1tO wLP2PmMlLU/2NXben5DY3WusZ4utYzJpb2+vUUodDgAkux3HWV9sTaWIOrJqYUykFH6Bua6ptna/ ciIGAoETSD5N8mkAq4qtp1TJxFX9T1FVFAAC9xdbg09pogCAvbIa5PvXAUe0q47448WW4VOaKABY tGBBlEbuK7aYsSJGbmtsbOwttg6f0mTfEqHTPXVTT1A+l/Zcv28g0THNKr99tPkikUhtIBCo9jzP ARA3xrRWV1e3jUVDZ2en7Xlered5oUAgEAsEAn+fNWtWZCxlDUREpkUikbpAIDDX87xdiUTir7VT oO/V3Nx8wKxZsxYqpRyl1N8rKipaSI64IWx6oKGepCorK3unEP8jEWFHR8dckvOUUtOSyeTbY/0e h6PfqvJb2ltvFCNfKWQFE42BXHFkzYK8Oq3RaLRBRK4SkZMBNAyRpI3k0yLygG3ba0ealyIi07TW lwM4F8BS9J83IwA2k1xVVVW1imRiyELSuK77FEkbAIwxl4dCoVe11ocbY75G8jQAM7KSny0iRyml ThQRGylnLADsJod2porINxzHeXokDcPoWkOyPq3r6lAo9MdIJHIIyWtJng70i/nrFJE7du/efX22 L0JEgq7rfoHklQAOyUpvALxgjPlyOBx+LYeOq0iek9bxaCgU+n5bW9uMYDD4VQAXov93+YjjOKcD QDwedxKJREeWlvmhUGjYIWCtdYWI3E1yYbqubmPMJf2MZOOOHeUBJt9Ie8KnPoINi2rqlpEc0dEj InRd95skrwVQlk/R8Xh8+nCBkpFIZKlS6lcY2tAG1v2GiJwcDod3DpfGdd1/AKhOpz8RwDySdwKD A09JflZETgfwmXzuI83ZjuP8MneyQbq2ou/BPtMYk1BK/QIjT3d4ae/evctra2t7Ojs77WQy+TCA E4ZLLCJ7Sf6r4zhPjaDjxwAyaz7fbYy5RSn1KIBBIUgkH7Nt+1RgdEbiuu58AE8AOCJ9qs0Yc0o4 HH6t34rsTbW1PZt2bvsCoZ6Y6n4TgnHPwudzGQgAaK1Xkbw461QCwLMkN4hITEQOIHkQgGMBHDhS WdFo9DhjzG8BzEyfMiSfA/CSiEQBzCR5nIh8HABJHqmUek5r3WTbdmfO+yKPAfBtpJrC3QCeBbBd RGaQ/CBSb/+MP6QewIfTx50AhnvQWnPVmwdHKKW+CqAcQAuAp0i2G2OqSJ4CoC6d7qNlZWXfEZFv aq0fA/AxAL0A/gjgzyQTItIE4MTU7XIagAfj8fihs2fPdnOJEJFypdQapAzEANgI4E0AHoADRWTU nnGt9REi8gSAzPSNrZZlfdJxnGYgq0+SYcnchnWb2967HuB3R1vZpCEQKlx6ZHXdW7mSdnR0XAkg 20Ce9zzv4urq6iHzRiKRJqXUlxsaGgY1tdra2qqNMavRZyBbSJ5n2/afB6aNRqPLPM97mKkpxQeR vA3IawG9bwMIiMjtJL/hOE48+2Jra+v0THNGa32uiDyYueQ4zll5lD9WrgFgicg1juPckt2EbG1t /cqMGTMeEpFTAYDkFVrrAFIGstGyrHMqKyvfyS5Ma71CRB5B6s0eSiQS/wYg536YJM9C6v/zhlLq Qtu2/5R9vbW1dVTTPjo6Ok4QkTUAMsvkvhgMBj+dbbBDzj9fNKf+JhGZurtIEd89Yk7dmlzJotFo Jckbsk69EI/HTxrOQAAgHA5vdBznXJJ7B14LBoPXo2+hi7csy/r4UAYCAFVVVc8qpU5D6hcOInJe e3v7wbk0I/UA3BEKha4YaCAAMJbYowIRAPC9UCh0w8A+Vl1d3e5AILASqTcfkOpDfRlAi1Jq+UAD AQDbtp8g+dOsU/k2HwMAmi3LOmGggWS05FkOtNbnkXwSfQaypqenZ/nAN9qQRkLSJGsiFwvw23wr nDSEP15cU39D7oSAiFyKvvZzwrKsC8Y6ISsej4eQ9SYg+R+VlZXRkfLYtv0igIwxK8uy8nmTdBpj puIeMTtt2/7P4S6mH6x+zT0Rubaqqio2QpnZP8Qf2LFjx8D1E4bjaznKzYnW+usi8gDSfVSSt9m2 /ZmhjGzYlUya2JQIul1nQ+Sh8YgpKErdsqhmft4PkDFmRdbHxyorK5vHWnUymVyOvo70zqqqqifz yUfykcyx5LeD2CPV1dXduZNNLiLyCMlcvqh3s46Txpj/HSmx53nZ6a1gMFg3bOI+4rZtP5ZHuiER Eaujo+N2EbkRqf6dkLzatu0vDte/HXG5n8bGxt5FNfUXgbwBguKFCpN7ILJycfX8a/JdLkhEAiQz nVqQXDseCcaYj2WV9Uo+AwYA4Hne1qx8/5wrPckNY1M4sSil8pmGsCPr+N1cxh4KhdqRWsYKAEAy n+0zNuVhrENijCmPRqNrSF4O7BtZO8+27VtGypdzv8H0Q3ndpp3bnoXwXpK1YxE4DrYq4Lwj5i7Y MppM7e3tTiAQyJ43P64JWSQXZI5F5HjXdQe1s4chmHWcc7tvY8ywQ8XFRERyNm9I7hLZ9xuWT3rP dd3dSDeJlVLBHFmA/oY4KizL+rWIZCYYxkTkdNu21+XKl/emnEvmNqx7s7X1qGTQfAfgJaPJOyaI HiO4pXK3d+tY+hGWZVUNODVi/yEPsh/w2em/0VImIsEczsUp19RKM6I3vQDp82XQYomjYN8MXJLP hkKh5/LJNKoHvbGuTgP490073/spiG8o8IyC+1PIPTRyf7ln3XTQvHljHt8PBAIJz+v7nkgWzKhJ vi4iG8eYvURmuBWN8azO+SMAXwJAEfm01vohETk/V0TEmB6cJXMXvAng/M1t275NBi4yYs5hHt7n HGw1wGpPefc0zWkoRJNDZ3/wPC80nsJExCWZOd7oOM5l4ynPZ/IRkVuVUltF5Hak+uNnaa1nNDc3 nzlSa2Vcv66LaxqaAVwrIt/5086Wo4zFZQo81ohZROF8sH9sWJ9aiFC2A9xCyDOKat0Rc+pG1efI RUVFRcx13QjJMAAopY4CMObOO8nskZgl49XnUxxs275La71LRO5F6vk/efbs2Y+0traePpyPpSBN kHTn/rX03w+BVJSonsaFimqmYmodYBHVZWC69yRV80fr6ifUKUZSXNd9HsDpqbrlVAA3j7U8EVlH MhM/1OS6bp3jOIUI9xgzIrKvmUDy/bW1eBGxbfsXWutk2k8SAPAv5eXlv4tEIqeEw+FBq4BOWOc7 /fr6v4kqP09WI20kAD7S0dHxiVAo9IexFGSMWWtZlgvAQepVfS2ASwojc8zs+0JFZFzNyf0N27ZX a613GWMeTsePHaeUetJ13RUDIx3e35uJ5sC27TUA9oWgkPx5LBb7p1z5RKRMRPo1Faurq7tF5Nas Uyu11pfmqyUWix2ota7PN30+WJaVHV5TGY1GG0aTPx3GXjfwXvcXbNv+TTp0KNMfOYbkH+PxeL9V QEvaSNKTgC5AKuoXAOYnk8mXXdddOVQgnNa6Xmt9tdb6nW3btg2afOY4zg8AvJD5LCJ3dXR0POC6 7pCbB8VisSrXdc92XXeN53l/E5GCbjJUUVHxLoD3svT8Smt9juu6R8disQMzf21tbTMG5o1Gow1a 67cBtGitfy8iUzrqe6KwbftJY8wnkR56F5GliURibVdX174VQifW1zEFcBxnvdb6IhG5B0BZuiO/ qry8/Ceu624B4JIsF5EDRWTEX3qSiba2tjOCweBvAHwofe58AOe7rrtdRN4huQsp59h8z/MmdF4O SdFa35QerYGILEV6UY/s4e9gMHg2stafAgBjzMVIhdoDwHKt9QfRF4K/XxEOh59JRyU/jpT/a0lv b+9zkUjkE+FweEdJv0ky2Lb9oFJqOfp73acjNRdjRXruR7aBxBoaGob0Z9TU1LTH4/FlAG4FkD34 MJ/kMgArkJqX0s9A0pOv3kOBqaqqupPk15CHh3uAnras470iUtRBiGJj2/bzxphPoM91cKhS6oVY LLaw5N8kGaqqqp4TkUVa69MAnAzgI0jNBqxEyhvfgtSU29/t2rXrMcdxho0PSg9KXNXe3v4Dy7I+ KyInkGwEEELK+LqQmui0FcCLIvL7UCj01+HKE5HbkJ6jYowZlSGlRxZvbm5u/snMmTOPtizrEABV ACqMMQoAlFKD6nYcZ5XWOgTgUJL3Oo4z1Iy9VZkBAaXU1iGu98MYswnATen0LXnewo8kva6CUmr7 MOX+geRuACCZ9xpx3d3du8vKym7KfCY54v414XB4YzQaPdHzvLOz6j7p/wETsiJeOyJEpgAAAABJ RU5ErkJggg== "
       preserveAspectRatio="none"
       height="4.4268346"
       width="15.08125" />
    <path
       style="fill:#4d4d4d;fill-opacity:1;stroke-width:0.22687936"
       d="m 32.014583,95.652085 a 1.8034012,1.8267437 0 0 0 -1.787991,1.601522 l 0.07969,0.04059 c 0,0 0.381093,0.175272 0.840061,0.175272 0.458971,0 0.76081,-0.166798 0.76081,-0.166798 0,0 0.403236,-0.22433 0.974789,-0.22433 0.409189,0 0.753212,0.108876 0.91975,0.171704 a 1.8034012,1.8267437 0 0 0 -1.787109,-1.59796 z"
       id="path4749"
       inkscape:connector-curvature="0" />
    <path
       style="fill:#4d4d4d;fill-opacity:1;stroke-width:0.22687936"
       d="m 32.881944,97.53547 c -0.458979,0 -0.758611,0.166798 -0.758611,0.166798 0,0 -0.405443,0.223883 -0.976989,0.223883 -0.404929,0 -0.744111,-0.107178 -0.912707,-0.170813 a 1.8034012,1.8267437 0 0 0 1.780946,1.550228 1.8034012,1.8267437 0 0 0 1.781829,-1.559594 l -0.07704,-0.0388 h -0.0018 c -0.0061,-0.0027 -0.38035,-0.171702 -0.835656,-0.171702 z"
       id="path4545-3-1"
       inkscape:connector-curvature="0" />
    <path
       style="fill:#ff913b;fill-opacity:1;stroke-width:0.87570381"
       d="M 7.9589844,0.98828125 A 7.0056306,7.0056306 0 0 0 1.1210938,6.4980469 c 0.769615,-0.1963381 1.7238414,-0.3710938 2.8144531,-0.3710938 2.5354356,0 4.3261719,0.9804688 4.3261719,0.9804688 0,0 1.3370191,0.7304687 3.3730472,0.7304687 1.432031,0 2.65847,-0.3743211 3.28125,-0.5996094 A 7.0056306,7.0056306 0 0 0 7.9589844,0.98828125 Z"
       transform="matrix(0.26458333,0,0,0.26458333,24.359753,96.974958)"
       id="path5565" />
    <path
       style="fill:#347a79;fill-opacity:1;stroke-width:0.87570381"
       d="m 14.828125,9.3671875 c -0.810479,0.2353723 -1.906367,0.4726563 -3.193359,0.4726563 -2.5354133,0 -4.3339848,-0.9824219 -4.3339848,-0.9824219 0,0 -1.3291801,-0.7304688 -3.3652343,-0.7304688 -1.2309564,0 -2.2742212,0.2669806 -2.94921878,0.484375 A 7.0056306,7.0056306 0 0 0 7.9589844,15 7.0056306,7.0056306 0 0 0 14.828125,9.3671875 Z"
       id="path5561"
       transform="matrix(0.26458333,0,0,0.26458333,24.359753,96.974958)" />
    <image
       y="77.103882"
       x="32.808334"
       id="image4813"
       xlink:href="data:image/png;base64,iVBORw0KGgoAAAANSUhEUgAAAPIAAAA7CAYAAABBj9fYAAAACXBIWXMAAA1kAAANZAERngfYAAAA GXRFWHRTb2Z0d2FyZQB3d3cuaW5rc2NhcGUub3Jnm+48GgAAEE9JREFUeJztnXt0HNV9x7+/uyvJ Lz127soSDxMrDWBe5c3BPoZaUCAYjMEYUyDm1WPMMQknCTSkTRNCqIPjpOXVk9ZgArVdINgQYgLF NsSkMYiamkeMwysgO8XG3p17dy35Je3O/fWPmbXG8mq1WiQLre/nSEdz5/7u7/5mNd+ZO/cxSy3j xzGGGAyaNqHlvV8NdhwWyxcFMdgBWCyWz48VssVSBlghWyxlgBWyxVIGWCFbLGWAFbLFUgZYIVss ZYAVssVSBlghWyxlgBWyxVIGWCFbLGWAFbLFUgZYIVssZYAVssVSBlghWyxlgBWyxVIGWCFbLGWA FbLFUgZEC+R9CtB6sGkFaDMJuIbJE2Q6DItaYq4FMBaEowCcCmDUgQnZYrF0JyzkTQC/xKCXhYn+ 9sz/eXcbAEx69NFhncOHHyY8UQdEYgAAjz8SEeidO6o2r5s9ZdfqSZOilZ1bT48wXcbgqwEcNgjH YrEctFDL+HEPMsziCS0frj11wXMjRozcM57BpzPhNGI6DcCXCpT3APwJoHVg/GZYlXnhpqUzdhyx +ZgrmPn7AI4diKDty/csln2h8xctGrmLhl8OwqUALgAwomRvjA4iPGmY71kzc8ZHLePHXUnADwCM 65doGe8w8X8C0UcmtGzQ/eLTYikDaOKSpWkAtf3s1wD4pSfoR69dPf3DlvHHNhPMTPgXisY++Ekx 8BoxvQxkXxz/+kfvTVry9OGZSKd59aqrtvRzzBbLkIUmLlk6kO+19gD8mokeqThUrlzd3Oy1jD/q aIBOIBZNRFzHQDWIhwG0GwYKgBaCPskIsX7img1/BoBJTzwx1vOiU5gxA4QJAE9f87UZtmltsQQM tJDDpAG8BOB1kHjHeLS10su6GFvvvtLcnJ301FOjOvdER0TRKZmiR7Pgo8ngBCacBeCIfV3xNCtk i6WLQsNP/U0dgOkApoMNhACygoDNLiYuWYpsJyCEB4MIAPZ/6ABGZ7EMYeyEEIulDDiQd2SLxdID WuvjAUwIki2O46zvS/myE3IymayORCJX5dKO4zxUbFmt9VkAjgEAY8zb8Xh8bX/FlU6nm7LZ7MUA ziSiBiKqY2ZFRNsArDHGPB+Pxzf3V32WoYUx5hwiuj9I3gbg4BZyRUVF3PO8Bbk0My8kIlNMWWae CWBWkJwP4HMLOZFIHBmJROZ6nncFUddDPzOH/84kIlZKLRNCfCcWi238vPUOFZRSdzNzBYD2eDw+ d7DjGarYZ+QBRCk1XQixHsAVod27ALxLRK8A2MDMHcF+AnCFMebtZDI56cBGOqjcRkR3ENHXBzuQ oYwV8gChtb4GwJNEVBXs2kREV3d0dNRLKU9wHKdZSnk8EY2G3wpIBHa1RPSiUuq8QQncMiSxQh4A XNcdx8wLAEQAgIhe8TzveMdxnjj00EN3hW2llG1SyoUVFRXHAfhDYF8FYPG2bdsaDnjwliGJFfLA 8O8ARgbbH2Wz2SmjR4/eUahATU2Nm81mz2fmZLCrIRKJ/GxAo7SUDWXX2TXYJJPJ04jor3JpZp7T m4hzNDQ0bHNd9zsAHgUAIrpSKfX3UspPC5XTWp9ljLmaiM4GMAZANYCtRLTFGLMWwDIp5StE5PXk Y/v27Y7neTcx82RmHkdEcQC7AWwEsDISifxrXV3dxwViqGXm+UHcHzuOM5+Zo1rra4loJjOPA9AA oN0Yc4wQ4s6gaEXwt0YptaC7X2beGI/H7yl0/PlQSl0AYBoACCEej8Viv0ulUl8yxnyDiKYy8+EA ssz8kRDi4Vgs9ggRdebKJxKJUUKIG4hoJoCvwF+PsJmIlmcymbsbGhq2FfgsLmbmKUHyMSllSyqV Gut53s1ENAX+isIRAB6RUs7qyU+BY5sA4LogyQAesELuZ4job0PJ9fF4/KW+lJdSPq6Umk9E9QAq mPlaAD/OZ9vW1hbPZDKLmPnCcI94QCMzNxLRKQBuVkr9I4C8vcKu616bzWbvhz/7DiFfI+AvRT3W 87w5Sqk7pJT35fPhed4IIcRNAMDMryWTycVa62UAJuR66ANqmHkEgJu6uci3D0S0FkCfhUxEJzJz Lp63tdYjjDGPA6gLx0NEJzPzz7XWl7W2tl7S1NS0J51O/4Xnec8hGIoMMYaZb4lGo5cnk8lJ9fX1 H+Srm5lPzR0LM7copQ41xvyCiGq6mcb6elyu604DsATAcABZALOllH+0Qu5ngrsiAICZnyqhfKdS 6lcIToTA335CTiQSjZlM5lUAXw52GQC/BbCGiJLwBTMOwDkAxhBR3scopdS3AfwMfq85iOhNACuM MVuEEKOY+WwAXwVQCeBepZSQUv5LL4cRFUL8Ev4EhzYAqwBsAlAD4KyKioqMMSY3vn8j/JbhLvgn 6D4w88Ze6iqG45j5pwBGBqMFrwWjBScBmAr/EfO8mpqae1Kp1F2e562G37J5H8AKZk4QUROAGcEx NEYikceZ+YxCrRwAEEKcaoyZFfR7fADg9/A/kyOIaHdfDsJ13VuJ6N4g3h0ArpBSvgjYpnW/kkql 6owxe6/iRPRGia7eQNfdaXz3TGYmpdST6BJxqzFmen19/Zs92J4rhBieJ96zjTHz4Yt4J4DrHcdZ 1s1snuu65xLRM/BP4nlKqRVSyg0F4j898PlMNBqdVVtbu8/acWYmIpoNAEqpmfDPwzYp5ewCPkuG mecAaAdwvuM4q8J5WuuLmHk5fHHMNsYcCeBwALc7jnNveA5CKpWaa4xpgd/aOSWVSn0VwPO91H0L EWWY+Xop5SIi4lBeUX1UzCy01vPhTxQBgM+MMReH/99lL2St9SalVLHmfW7qhPE8r5FC7dJIJPJh KX6I6INQ868mkUiMCj9nu647RQiRew5PCyGapZSbevDF8Fed7Ycx5qcIetYBXCelfDqfXTwef1lr PYeZl8B/pv07ANcXOgQAbziOcyURZXuI6UBCzHxDPB5f1T3DcZznlVLPwn+eHg7gIgD3Syn/ubtt LBbb6LruXCJ6EACY+RL0ImQARETflFL+R56MXicqMXOV1noR/NYAALwnhJgspdwYtit7IcO/uh4Q hBCy2/NgukRX+5SLRqMO/KZUrp45uW0i+nEsFssr4kK4rns6gDOCZEtPIs4Ri8We0Fr/E4CxAC5l ZlHoRCSiu/KJeJBYH4/Hn+kpk4hWMvO0IJnNZDJ5+yQAgJlXha7VJxZR9//FYrH9OvGKIZ1Ox7TW vwZwVrBrTTQandq9hQMcHEL+7z7YHgngkFIr8jyvUoiu1lJnZ2emRD+dYT+e5w3LbTNzhdZ6Yi6d yWQWlVKHEOKc3EWHiJ7tzZ6IjNb698w8FkCt1voYAHmb18zc0b0JO8is7CV/7xx3InqnsbEx0ZMh M4fnw48uou7/KnaKcJigl/sFdHW4LWtra5vZ1NS0J5992QvZcZzmYj9IpdRD6Jpr3Wei0WjKmK6q iKgaoTtpsRBRXThdVVW199nAdd0mIURujHpjoWGQQjDzybltY8xfaq3vKKJMU2i7ET0ImYg+CQ/l fAEoOHxnjEmG7rIFbUePHr1DKbUbfjO8mPfbvVdUhCGI6CRjzO3ouqnc5zjObVLKHs/jshfygYSZ uzd5DgHwWQmuwu81M9XV1Xub2kIIJ5RXkogDZG6DiK7p9khQDN2HUsK0lRTRAEFEHb2Y7BVIaO57 MfbFvPqiz59FsHgnx1Ip5bd6K2OF3I/EYrFPtdYagAMAQohTAOzXk9wbwdhvjg3hIQ4iioZE93me QYeFtt8nop19KczM2wtkFxySOZhg5j43q+EPUU2A3xF5uVJqlpTy4UIFoiAekC7/gSQqvLcGO4Z8 EJFRSrXA7/kEgPMALCzB1d4FE8z8ajij211fokSISIcuCN9yHOfFUn1Z+p1nATwA4HH4owQLXNcd Fo/HH+ypQHTNNTOKXnhv6R0iWs7MFwEAM09tb2+vr66uTvZWLodS6jiExo6FEMvD+ZlMZlNFRUUG /j/4yO5DU8XCzK2hmE8EYIX8BUJKuUxr3WGMWUpEVUT0gNZ6uOM48/PZ20UT/czOnTsXA3ABfxVT Z2dnX6cX/iS0/UEsFlsRzmxsbNwJ4H+DZCQajV5aSpzMvDq0Pb0UH/1Ermd/vwkrBzuO4zxHRJfA n/UGZv6JUurOfLZWyP3MmDFjdjPz3aFdN7que30xZV3X/Qd0NcvBzN/N1+NORI+FbL6/ZcuWPn87 SHt7+woAuZf8n6a1/pu++ugnch15Na2trcMKWsKf5ZROp7+c+y2mzFBGSrlSCDEZ/sw0APih67rz uttZIQ8AUsoHAbwQJImIFiql7mTmynz2iURilFLqfiIKL2p4OB6P5x3f3b59+yIi+lOQPKqqqmpZ Mpms7imetra2eCqVOim8r6mpaQ8R3ZVLM/PDWuuLezu2ZDLZrLWe05tdH8gNYVF1dXWvFxOt9SjP 8z7O/dbU1JzcW5mhTiwW+x2A8xFc9IjoDqXU/cxdL4y2vdZF0traOqy2traZmc8kIoeZP6msrFyS 7/k3eP/WVQCeAXAu/N7HH2qtZ2mtn2HmdwCkiUgGK2WmAYiHXDzlOM43eoqlqalpTyqVmsHMa+CP ZV4ohPgwGAdfY4zRQogq+N+59deZTGYqgHkA3g77cRznodCSuFHM/JxSahURPQ1gg+d5uyORyAhj TBMRnQrgEgBjmflJAD8v8aPsztMALgQAIvqFUuoGAK0AOoDSlzGWG1LK15PJ5LlCiBXwz5VbtdbD mflmIjJWyEVSU1NzCTPfA2AVM7cDuLWzs/N76XT6jLq6uk+620sp25h5stZ6HoCvw++cOoyZ9wo0 z9jtLgDzHMeZ29skllgs9pbrus3BrKxD4I89/wAAwrPCesNxnBtTqdRmZv4uglVAzHxezg8zh5c1 5uIuZUilp/ofU0pNDdbpEoCzg18ApS9jLEfq6+vf1Fo3M/Mq+P/vWalUahgz31B2Qs5kMh1EFB6e KnqmAzNvApAru8+raTOZzPMNDQ3LcgJzXfc+Ivqz53lfA/CjfP6C2U3fTiQS/xaJRG4hoouY+St5 TP/IzL8hogd7e4lAmHg8vjaRSBwlhPgmEV2N/dfPgpnfEkI8ZYxZ3EOMBsD3XNddQkS3A5iM/F+0 9xkzryai5bt3717ePbOqqiqTzWbXBXXmXafbQ/0eM0/VWl9ARJOZ+SgATmjZ5fth+0wm41VWVq4L 7crbY2+M2SqEyMVTcNSAiHYS0bqg3H4X5Ty8RUTD80wAyrEl54+IilqxI4RIAMgdV48TfRzHeTeZ TE4SQiwkouEAjk2lUrfZL2UpEa318cz8ByK61nGc/dbR9kTwMoAGIqozxuhoNLq1rq4u1R8xbd26 dXRlZWUjgGohxJZUKvVZT3NzC6G1PsLzvHgkEhlJRO1EtKm/YrQMDFbIJZBOp2Oe570CIN2XudwW y0Bhe637SFtbmzTGvAR/DPcyK2LLFwEr5D7Q3t5en8lkXgbAlZWVzfnWhVosg4FtWheJUmoMgBUA OojoOiHEDgDYs2fPjkLrVy2WA0HZ9VoPFER0ITMfAwDM/I7n+Qt8KisrFwO4djBjs1j+H16dz45N yiWyAAAAAElFTkSuQmCC "
       preserveAspectRatio="none"
       height="17.225286"
       width="70.65287" />
    <g
       id="g5029"
       transform="translate(20.902083,-0.6691662)"
       style="fill:#4d4d4d">
      <path
         transform="matrix(0.26458333,0,0,0.26458333,24.359753,96.974958)"
         id="path4967"
         d="M 1.9316406,2 V 6.3242188 C 2.5353679,6.2135986 3.2010865,6.1269531 3.9355469,6.1269531 c 2.5354356,0 4.3261719,0.9804688 4.3261719,0.9804688 0,0 1.3370191,0.7304687 3.3730472,0.7304687 0.876215,0 1.655423,-0.146631 2.296875,-0.3085937 V 2 Z"
         style="fill:#4d4d4d;fill-opacity:1;stroke-width:1.99999988;stroke-miterlimit:4;stroke-dasharray:none"
         inkscape:connector-curvature="0" />
      <path
         transform="matrix(0.26458333,0,0,0.26458333,24.359753,96.974958)"
         id="path4963"
         d="m 13.931641,9.5839844 c -0.672292,0.1403242 -1.437262,0.2558594 -2.296875,0.2558594 -2.5354133,0 -4.3339848,-0.9824219 -4.3339848,-0.9824219 0,0 -1.3291801,-0.7304688 -3.3652343,-0.7304688 -0.7531336,0 -1.4170915,0.1105739 -2.0039063,0.2402344 V 14 H 13.931641 Z"
         style="fill:#4d4d4d;fill-opacity:1;stroke-width:1.99999988;stroke-miterlimit:4;stroke-dasharray:none"
         inkscape:connector-curvature="0" />
    </g>
    <path
       sodipodi:nodetypes="cscsc"
       inkscape:connector-curvature="0"
       id="path4861"
       d="m 4.2333333,99.356252 1.058333,-0.529167 c 0,0 0.492842,-0.22651 1.097603,-0.22651 0.604763,0 1.019063,0.22651 1.019063,0.22651 0,0 0.4143,0.22651 1.01907,0.22651 0.60476,0 1.097599,-0.22651 1.097599,-0.22651 l 0.5291647,-0.26458"
       style="fill:none;stroke:#000000;stroke-width:0.52916664;stroke-linecap:butt;stroke-linejoin:miter;stroke-miterlimit:4;stroke-dasharray:none;stroke-opacity:1" />
    <path
       style="color:#000000;font-style:normal;font-variant:normal;font-weight:normal;font-stretch:normal;font-size:medium;line-height:normal;font-family:sans-serif;font-variant-ligatures:normal;font-variant-position:normal;font-variant-caps:normal;font-variant-numeric:normal;font-variant-alternates:normal;font-feature-settings:normal;text-indent:0;text-align:start;text-decoration:none;text-decoration-line:none;text-decoration-style:solid;text-decoration-color:#000000;letter-spacing:normal;word-spacing:normal;text-transform:none;writing-mode:lr-tb;direction:ltr;text-orientation:mixed;dominant-baseline:auto;baseline-shift:baseline;text-anchor:start;white-space:normal;shape-padding:0;clip-rule:nonzero;display:inline;overflow:visible;visibility:visible;opacity:1;isolation:auto;mix-blend-mode:normal;color-interpolation:sRGB;color-interpolation-filters:linearRGB;solid-color:#000000;solid-opacity:1;vector-effect:none;fill:#000000;fill-opacity:1;fill-rule:nonzero;stroke:none;stroke-width:0.52916664;stroke-linecap:butt;stroke-linejoin:miter;stroke-miterlimit:4;stroke-dasharray:none;stroke-dashoffset:0;stroke-opacity:1;color-rendering:auto;image-rendering:auto;shape-rendering:auto;text-rendering:auto;enable-background:accumulate"
       d="m 19.84375,97.977008 v 0.585494 c -0.15451,0.06308 -0.594309,0.222209 -1.136882,0.222209 -0.670828,0 -1.1467,-0.259933 -1.1467,-0.259933 0,0 -0.351679,-0.19327 -0.890385,-0.19327 -0.534397,0 -0.973227,0.195775 -0.980302,0.198955 h -0.0021 l -0.077,0.03876 v -0.574642 c 0.201517,-0.07362 0.592162,-0.192236 1.059367,-0.192236 0.670834,0 1.144633,0.259415 1.144633,0.259415 0,0 0.353753,0.19327 0.892452,0.19327 0.538694,0 0.986503,-0.203088 0.986503,-0.203088 z"
       id="path4566-9-6-6-1"
       inkscape:connector-curvature="0" />
    <g
       id="g5393"
       transform="translate(-9.7574286,1.7752699)">
      <path
         inkscape:connector-curvature="0"
         id="path5096"
         d="m 13.109794,104.60864 -0.938961,1.62678 c 0.606199,0.028 1.026294,0.25373 1.026294,0.25373 0,0 0.353753,0.19327 0.892452,0.19327 0.07261,0 0.142925,-0.004 0.211357,-0.0103 z"
         style="color:#000000;font-style:normal;font-variant:normal;font-weight:normal;font-stretch:normal;font-size:medium;line-height:normal;font-family:sans-serif;font-variant-ligatures:normal;font-variant-position:normal;font-variant-caps:normal;font-variant-numeric:normal;font-variant-alternates:normal;font-feature-settings:normal;text-indent:0;text-align:start;text-decoration:none;text-decoration-line:none;text-decoration-style:solid;text-decoration-color:#000000;letter-spacing:normal;word-spacing:normal;text-transform:none;writing-mode:lr-tb;direction:ltr;text-orientation:mixed;dominant-baseline:auto;baseline-shift:baseline;text-anchor:start;white-space:normal;shape-padding:0;clip-rule:nonzero;display:inline;overflow:visible;visibility:visible;opacity:1;isolation:auto;mix-blend-mode:normal;color-interpolation:sRGB;color-interpolation-filters:linearRGB;solid-color:#000000;solid-opacity:1;vector-effect:none;fill:#ff913b;fill-opacity:1;fill-rule:nonzero;stroke:none;stroke-width:0.52916664;stroke-linecap:butt;stroke-linejoin:miter;stroke-miterlimit:4;stroke-dasharray:none;stroke-dashoffset:0;stroke-opacity:1;color-rendering:auto;image-rendering:auto;shape-rendering:auto;text-rendering:auto;enable-background:accumulate" />
      <path
         inkscape:connector-curvature="0"
         id="path5092"
         d="m 14.585673,107.16559 c -0.151616,0.0261 -0.314675,0.0465 -0.496094,0.0465 -0.670828,0 -1.1467,-0.25993 -1.1467,-0.25993 0,0 -0.351679,-0.19327 -0.890385,-0.19327 -0.0645,0 -0.127495,0.003 -0.188619,0.008 l -0.687813,1.19218 h 3.867464 z"
         style="color:#000000;font-style:normal;font-variant:normal;font-weight:normal;font-stretch:normal;font-size:medium;line-height:normal;font-family:sans-serif;font-variant-ligatures:normal;font-variant-position:normal;font-variant-caps:normal;font-variant-numeric:normal;font-variant-alternates:normal;font-feature-settings:normal;text-indent:0;text-align:start;text-decoration:none;text-decoration-line:none;text-decoration-style:solid;text-decoration-color:#000000;letter-spacing:normal;word-spacing:normal;text-transform:none;writing-mode:lr-tb;direction:ltr;text-orientation:mixed;dominant-baseline:auto;baseline-shift:baseline;text-anchor:start;white-space:normal;shape-padding:0;clip-rule:nonzero;display:inline;overflow:visible;visibility:visible;opacity:1;isolation:auto;mix-blend-mode:normal;color-interpolation:sRGB;color-interpolation-filters:linearRGB;solid-color:#000000;solid-opacity:1;vector-effect:none;fill:#347a79;fill-opacity:1;fill-rule:nonzero;stroke:none;stroke-width:0.52916664;stroke-linecap:butt;stroke-linejoin:miter;stroke-miterlimit:4;stroke-dasharray:none;stroke-dashoffset:0;stroke-opacity:1;color-rendering:auto;image-rendering:auto;shape-rendering:auto;text-rendering:auto;enable-background:accumulate" />
    </g>
    <image
       y="60.197918"
       x="-8.7312498"
       id="image5022"
       xlink:href="data:image/png;base64,iVBORw0KGgoAAAANSUhEUgAAASQAAAA7CAYAAADSDvcWAAAACXBIWXMAAA7BAAAOwQG4kWvtAAAA GXRFWHRTb2Z0d2FyZQB3d3cuaW5rc2NhcGUub3Jnm+48GgAAFrpJREFUeJztnXmcFOWZx3/P2z3A QIDuquoBRVxRwFs8BpRLiSjGeGSjTqLRmBij5lISdY2AJqNZjLpRBvCI67EaN+t6bIzGaPJRBA88 ibeb9QIiBpnprupWkGNm6v3tH1U9U9PT1ww9My2p7x9Q9dZTz/v0dPXzPu/zHgUMAFw87RIuOmy3 gag7JCSkelH9XSGXHLoLID9DJHJtf9cdEhJS3fS7QwKivwIwDEQDF82Y1f/1h4SEVCvSn5Vx6czp 0PqZjnoFb8OpOVAaV7T3px0hISHVSb9FSGyEgqubEHSCxL4wWs/pLxtCQkKqm/7rshnTz4Ggvls5 5V95wxSz3+wICQmpWvrFIXHRrBiIXxS4bMCt+Xl/2BESElLd9E+EpFobASSKSPyAS6fu3y+2hISE VC197pC46LC9AflBCbEIXNXU17aEhIRUN30fIanI9QBqSsoJjuTiGV/tc3tCQkKqlj4d9mfT9BMh eKgHt6zGiJp95awVW/vMqJCQkKqlzyIkNu47CIJ/6+Ftu+OTtgv7xKCQkJCqp++6bPH4hQAm9vg+ wQIunrFr5Q0KCQmpdvrEIbHp0FEA5/Xy9qEAF1bUoJCQkM8FfRMhqei1AEZsh4bTuWT6zEqZExIS 8vmg4g6Ji2ccAuKM7VQjAJvYOBCLf0NCQgaKiv7gSQjAGyuil3IwjBnf3m49ISEhnxsqOuzPxdO/ BeDOyilEC2q3TpTz/vJJxXSGhIRULRWLkHjN9OEArqqUPgCAoA5bh1xWUZ0hISFVS+W6bEPkMgA7 V0xfJxewafqefaA3JCSkyqiIQ+KSaXsAnFsJXXkYBMHSPtIdEhJSRVQmQqIsAjC4IrryczQXT/9y H+oPCQmpArY7qc0lM44C+XgljCmK4H1gxH5ywWPb+ryukJCQAWG7IiQ2zoqCXFQpY4pXhvHQG3/U L3WFhIQMCNvXZTPafgRgv8qYUgbCn3PRzJ36rb6QkJB+pdcOiUtmJkD099azw6F0oa1wQ0JCPuds R4TEhQBiFbOkfM7ikqlTBqDekJCQPqZXDomLph0I8juVNqZMFKCavGUqISEhOxK9i5AUmgBEKmtK DyCmYun0bwxY/SEhIX1Cj6MMLp52KiD39IUxPeTviNbsJT9csWmgDQkJCakMPYqQeP3UWkCu7itj esgYtLdfOtBGhISEVI6eddmUuhTAP/WNKb2BF3Px4RMG2oqQkJDKEC1XkNcdPhbiXtyXxvSCwaB7 NYCTB9qQnmDb9tsAhgCA1vrYRCLx7gCbVBTbtq8AvE33SN5hWVa4xXBIN2zbfg3AcABQSp0Uj8df 76mOsh0SavTl0HgBgtcBroGotRB+DKrNcOm9tijijoSW4VBqDKgngnIABIcDsHpqWNkITuLiqbNl 7vPL+qyOyjMOQC0ARCKRQQNsS0lExCS5u39sDLQ9IVXLbgBGAoDrur1a21q2Q5ILnj03e3zAxRcP iw5RuwJqJyHGZcupZUtEKQeu++LLV1/93wBIQrB0xgEgT4XgdBBje2NocVQTG2cdJI0r2iuvO+Qf HZIRx3E6olil1JHxePxvA2nTjkpJh9TQ0BD5YPz4aaIwWTTqKawXyHjo7iN0IgCpASWonz/vUwBv Tr4MTymoB19auHA+G7EA8emnALgclV1ysh9ibd8DcEMFdYaEZBEAu2dP2traSr+JOaRXlExqrx4/ /lwleFqI6yA4TSATUN50gREApoOYr6lfrp8/b2196/yf7Jc++lGkV04CeQqAl7f3A3QguII3TDEr pq8PiUQi+0YikT0ikcge8Xi8qvNHISH9SVGHNLWx0RBBpdaO7Srgr2pbt62dsm3eZdMyc5bL3JVT AH0UBPcCyGyH7i0A3oIbObBCtvYpsVhsTSwWWx2LxVaLSOtA2xMSUi0UdUhtrdsaAVQ66jApuKKt ddvf6ufNu25ay5H/JxesPBXpmgSAI0EsAPBbEKsA+QhAGoCG53SSAN4FuAwit0LwE1AOw5CtI2Xu yiNk7vPLDmlsHFphe0NCQvqJgjmkyZf/dF+6+H4f1v0FCC5so55bP3/eC/Xb8Ig0yyOrBg26Go2N uhwFDQ0NkTUTJuwN8sxD5h89QyBz0LrtHQBHlro3k8mM01p/zT9NG4bx74Vkk8lkfSQSmR0oetQw jDcLyadSqfOVUkMBwHXduxOJxPrgddu2LxKRKABEo9HbR4wYkcrV4TjOAQCO9U8/Mgzjt/69uwD4 DoDZAMbCa1Q+BLCsvb3916NGjWou/sk7IRlNp9MNAL5GciK8bvbHAN5USt0Vj8efLldXPt22bR8P YI6IHASvYRsO4FMA7wN4meSjlmW9VIYusW37SBE5HsCh8EZthwJIicjrJP9gGMaDIuIW0xP8Hkmu MU3zPgBoaWmZEIlEzgAwC8AoAF8g+RDJxZFI5Ku2bSuRzixFJBI513EcO4+dr5mm+ecy/jzdaGlp GR+NRrPTVzqeR9u2x6Lz+x4DoB3A+yQfM03zVhHpsmEhyRrHcU4C8HV4eS9TRFpILldKLS2VjM9k MntorU/JtSOZTO4ciUROJ3kMgJ3gjaa9Zprm8b35vP5nO1lExmfP29vbf1cwF1Q/f94T8P4I/c0W Ct4F8Y4Q60VkmyYzAigojAQlBuidADUe4O7It3Uu0bDql798oFglzc3No6LR6Mfw8mGuUsqKx+N5 u42O49xF8szsuYjcYBjG+flkfYexzj9tc13XqKur25Qjsxn+sL+I7G8Yxlt59JwN4Db/9FnTNGf6 ZUuz9+Zho4icZhjGHwt97iwtLS0TotHoPSQPKSJ2j9b6vEgk8kuSP/TLrjdN86JiulOp1FeUUr8i Ob6YnM99pml+vdDFZDJ5sFLqRgCHldDzttb6zEQi8UohAdu25wJo8k//ZBjG8Y7jzAfwM3RvnJeR vFFEflfGZ8hyi2ma3+uBfAeO45xA8mH/9D3TNCfatn0WgBtR+Pt+E8CXTdP8CACSyeSeSqmHAUws IL+Z5Dcsy3qoiB3HkXwEAETkfcMwJvjP3WIAw3LE/2aa5m7ZE9u2M/CH/UkeWqix8RuYq0Tk0s4i Xm5Z1sK8EdLkefNO4sA4IwCoFWISgEkQgCA6Gidm/5HsSX4E1x/S2PjoXxobNxcSGTVqVLNt228B 2B9AxHXdLwJ4MJ8sydnFznOvBVrTF3OdUW9JpVLnA1jin7YDWA1gK7yZ8yP98uEkf5dOp6cUm5SW yWTGua77JMldAsU2ybdEpB3APvBawdOUUjGt9dpghFAM27YvB3AFyeANGwG8Ay9PaMH7wQwFAJKj Cunyfxz3ousPwQbwLslWEdkNnSsH9lVKrXAc5zjDMJ4p09arROQS/5QkU35ObzQAUUq1kkz71+OB Wz+Bl0bIpeDz1lNSqdS3AdzhG7ZNRFb7de4Bf1ItvGf3QZKHOo6zF4BnA3Z+5EdGu6JzHuBQEbnP cZz6YhF+ENu2zwEQ7D2kAWyCF0n2fC0sOdi27TtEJLs4vlVEzjZN8z+BPF228eefP5iCa3paUZUx Fq1bLwJKJuSXwftSoZSajTwOKZVK7Q0vVA6ydyqVGmNZ1t9z5ZVSs8kOZ1mpyZp7icj1AD4DcJmI /IdhGJ8AHV2jM0TkJngt6SB62wrn7baSVI7j/AZA1hltEZGL4vH47dkEuy9zMoCbARwrIul8unLx f0RXBoreJXmpaZp/DCbv/a7iVJKn+06lG47j7EfyPnQ6rlcB/ItpmstFpMMZpFKpQ0Xk1wAOhOeQ 792wYcOBo0ePbilh7sEicgw8p34NyVuz3+e6detqhw0bdrBhGCsBGCSjjuO0ZW90Xbe+rq7u/XL+ Jr2kzv8+twCYT/J2y7I2AkAymRyulLoSwI992fp0Ov0NkheKSBzAva7rXpa1j6Sk0+njSd4Nr+Ea RPJadKYDCkKyDl5kpEXk5vb29qaA3mgqlZrRkw+VyWTitm0/KCJHZItInmya5pNZmW5J7djwYRcD KCfUrmoEMu+gBQuKrrsTkSeyxySPKiAWjIYeK1Ce1SHB6CmofzuxSLoAjjZNsynrjPw62i3LupNk R76P5KxMJjMun6J0On0agBmdojzNMIybgw5DRLRpmvdrrb8E7wcbz6crSHNz8ygRuTFQ9IJS6lDL sh7MHUkUkXbDMJ4xTfN7mzdv/mquLpKitf4NfGcE4MmNGzdOsyxrWdAZAYBlWS+6rjsTXvcFAHaq qam5BKWpA+ACONE0zcZg4zJ27NgtvjMaKEYCqNFaH2eaZlMikdiYvZBIJDaapvkTkn/IlpG8Q0QO InmTaZqnBp2liNAwjD8AOC+gf04ymSznHYojANSKyPcNw/hRjt72RCKxotwPlE6nd3Ndd2XAGX0o IjMty3oyKNfFIU1dsGAMIDvKCvraCHXRnQlc130aQLbl29PP/3TBj5wAQCulFgTKuzkwx3H2RufL MjfF4/EXe2V5HkTkatM0ny903Q95P86Ka62n5ZMLOi4A9xfLJyQSiVUkmwpdD1JTUzMXnQ5ko4h8 vVBOLsjYsWO35JY5jnOMnwgHgE2u654+bty4rYV01NXVbRKR4Of6LslyluTcaJpm378xp3fclEgk lhe66EdQWWoAfGSa5oWF5A3DeABANmpUIlIqJwcAIPlIsQGfckgmk4dorZ8HsLdf9JrWemq+3GkX h9ROfS2AL2xP5VXGqZMX/PTwQhf9lqcj8ZYbJZGMkJzlH78ej8dfhZcLAcluXaKc3NIzItKWK9NL qLW+pZiAP8LU4bBIdnvb76effmoC6HBUWuubS1WslLoZ+fMluTQEbLnLMIwPy7gnLyRPD5zeW1dX t6HUPYZhrCT5gX860nGcYsl6AIDW+qZSMgOFiNxaQuTtHPm7c0fccq67JP8aKCrrbdBKqe36GzmO c5xSagW8vBwA/FlrfXjuyHNHfdmDKfPmTSVw2vZUXo0QqqmhoaHY7pbBPE+Xbpht2/Xw9w3Pdr9I ZuXH2La9T1A+J2qqVHcNANYmEomPSwmJSDCnNTL3eltb22T4iUiS2yzLKtkt8R1L0dnkqVRqTHBE TWv9+1J6iyEiMwPHTxaTzbnvtcBxqUmyG6p4l4VN8Xj87WIChmFsQKCh0FqXnD4hIkEnUM5++Jpk r7uujuOcR/L36Axy7jAM44RgFzQXL6nd2Kh067YmVODFkVUHcdDa8eO/AyBvi6OUWqa1/hkAiMhs kiIi2ax00EFlHcwyAD8AOiKi//WPo47jZPvHUEpVcveBUglaAIDWektgNGxI7nUR2S2bcBeR93oQ wf0VwF6FLiqldg8k8lFTU/NqmXq7sW7dulp03XPrHNu2/7nM2w/OHmitS03oXdNT2/qRVOAZzIuI tNm2vRF+w6OUSpZSSjKdfT5EpNvzkUfetizr0/JM7sblJLNzlAig0TTNK4vdAPgOqX7btrMg2GHf 5EHBwgMbG+9/rbGxW04jFou94DjOZ/CGlndKp9P7AngL8BwU4EUTra2tzwJANBpd7rquCyDiR0RL AcBxnHp0RiUtsVjsjQp+hHIdR9GHGF1bxZ4s1XGKXdRaGwFH6I4YMaKsUbl81NbWdtneJNtl7gXD S1wv2EpXAT3u6mutS96jlGKw4SiFiPT6b+RPYs3yeDnOCACi0y+5ZPi2yq1Xq1YS0datPwPQLekn Iq22bT8D4EtAR9Tzlt9STwMApdRzO++882YAiMViadu2XwEwmeQRJKMi0p4z/2h5qRZuINBaS8DG nthXSrZikXU0Gh3k+fsO3iqWGykEyW5TMnIoazXAPzK5I5o9geQjAac0x3GcG+Lx+PmlfhfR1qj6 ObxJcDs4cn79/Pl3rLrqqm6ZfXjdsaxDOgrA4tra2uno3NWxSz6I5DIRmQwveVoPb4j7qEDrU8n8 UcVQSmUCNnbLMRWh6LB/JBJxtO54diOZTGYkerlYWmvdJRojebZpmiXzIyFVxy9IPi8iCwGA5A8d xxlK8pxiS3yiED4sgj/1n50Dh0ak2xAz0JFHAgCIyBEka2zbDiaoc/NBTwC4FPAc2Pr169/QWk/N Rh+RSKRad69cFzgeTzJSav2XT8H8EQCQXJtTNAnAUz20DQAQj8c/dRwng87BhP0QGAkN+fxgWdZV qVRqk4hk89NnOY5TS/LMQvnL6MsLr+n1AsodhVgs9objOCl4U+yHp9PpKdn8EYCMaZqrgvJbtmx5 bujQoVsBDFFKzR48ePBL6FxTtzoWi1VlwrStre3laLRjcv5Qx3GmIDBVIB8tLS2jUcIhGYbxoW3b a+FtYQqt9XHopUMSETqO8xTJr/jnJ8JfQjGAaHSuWfpcbDtcLViWtcRfu3kLvFH9U9Pp9FCSX8vX Fd+OV2nvOPh95Y7hZZINAA7yr63IjSL8yXwrAcCPjE4MXK7W6Aj+TgBB5/rdUvcopc5GeS8F/Z/A 8dkbN25M9NC8DrTWHbpInpBOpyf1Vlcl8J+PzwLnn4uNAKsF0zRvE5FvwluDCZInOo7z8Pr167tt FRQ6JB8RCTqS8+D/CHPzRwH5J/z/B5M8O3Cpah2ST3CC5bfS6XTBiaPJZHKiiPy0TL1NJLMtntHa 2nr3mjVryhla7vYMmqZ5D4D3/FOltb6vubm54CLcXBzH2b9c2R6wOnC8T0GpHGzbvs9xnFWO46yy bfu20nfsmBiG8V8kGwLPyJzBgwc/Ztv2iKBc6JB8cuYNdfyQSOZ1SFrrfPIcNGhQ2RP5BgLDMO70 F6oCQERr/ZBt26fkyiWTyVlKqSfgDZ9/lns9F38LjH8JFB0zYsSIpxzHmZ5PvqWlZYJt21c6jtNt mxh/x4EzAw/vxGg0+koqlTqz0JIQx3F2TaVSF6RSqVcA3FnK3p4iIh1dUJJXOo5zXjqdntTc3Dwq k8nEM5lMPF+LD2AfkofQ2+alrNnROyqWZf1eRL6Czl0RDgfweCaT6Rg0Kf81SDs4sVjsA9u21wAI Lkpdl0gk3sknb5rmK47jpNF1BOr14cOHl5ygNpCISLtt29+El+Mx4SWP77dtezWAV+DNgZmEzijg WXiTP8/No64LlmUttW17DwBz/aIpJJ+1bfsjeItfN8Eb3dsLwK4AQDJvrsk0zRds2z4DwF3w1sjt LCJ3OY5zk23brwJo9j+PSXIvkqMDUxoK7onUW1zXvcHvvg4FUEfy1yQRjUaRnaYwePDgWwD0aj+k fxRM0/xzOp0+Vmv9CLzGborruss3bNgwZ/To0S1hhNSV3O5Wwe6Xn1daUa58NWGa5tv+pM73AsW7 AzgF3vKhrDN6YtCgQSf1ZE2eaZo/BnAOyaBj3gXedhcNAObAd0YAoJT6BAUwTfMBpdQ0AM8FiofB 263gZAAn+xMnRweubyG5olx7yyWRSLxL8gR0/ZuF9IJ4PP60P70mO4F2Uk1NzYpUKjUmjJACkLwN 3gZgAAARKbgSHgC01ktFpGM9VCQSuafMqq4jWQMA7e3teSMqkm8A3r5USqm15ShVSj0VmA9UdKg8 Ho+/tm7dukm1tbXfFZEGABNJxkTkYxF5g+RvDcN4QER0KpV6HF50A6VUyc3PTNO8LZlM3quUOgPA MSQnAUgAGATvIVwN4EV/JXnRLq6/0dz0dDp9hNb6RHhh/hh40V07vC1x3xWRN0kuhzcrOO9yBxFZ pbW+xj/u8To2y7KeJLlnKpU6SET2V0qNBjBca539HeXb3eF2+pvQFfsetdbvw/++RaTblsYFaCI5 xL+n5FpHrXXH90jyuQIyHwTs6LZNb6XssSzrpXQ6/UXXdTvWzyqljvt/xjviKUcdoOQAAAAASUVO RK5CYII= "
       preserveAspectRatio="none"
       height="15.610416"
       width="77.258331" />
    <path
       style="color:#000000;font-style:normal;font-variant:normal;font-weight:normal;font-stretch:normal;font-size:medium;line-height:normal;font-family:sans-serif;font-variant-ligatures:normal;font-variant-position:normal;font-variant-caps:normal;font-variant-numeric:normal;font-variant-alternates:normal;font-feature-settings:normal;text-indent:0;text-align:start;text-decoration:none;text-decoration-line:none;text-decoration-style:solid;text-decoration-color:#000000;letter-spacing:normal;word-spacing:normal;text-transform:none;writing-mode:lr-tb;direction:ltr;text-orientation:mixed;dominant-baseline:auto;baseline-shift:baseline;text-anchor:start;white-space:normal;shape-padding:0;clip-rule:nonzero;display:inline;overflow:visible;visibility:visible;opacity:1;isolation:auto;mix-blend-mode:normal;color-interpolation:sRGB;color-interpolation-filters:linearRGB;solid-color:#000000;solid-opacity:1;vector-effect:none;fill:#000000;fill-opacity:1;fill-rule:nonzero;stroke:none;stroke-width:0.52916664;stroke-linecap:butt;stroke-linejoin:miter;stroke-miterlimit:4;stroke-dasharray:none;stroke-dashoffset:0;stroke-opacity:1;color-rendering:auto;image-rendering:auto;shape-rendering:auto;text-rendering:auto;enable-background:accumulate"
       d="m 21.166666,95.916668 v 0.585494 c -0.15451,0.06308 -0.594309,0.222209 -1.136882,0.222209 -0.670828,0 -1.1467,-0.259933 -1.1467,-0.259933 0,0 -0.351679,-0.19327 -0.890385,-0.19327 -0.534397,0 -0.973227,0.195775 -0.980302,0.198955 h -0.0021 l -0.077,0.03876 v -0.574642 c 0.201517,-0.07362 0.592162,-0.192236 1.059367,-0.192236 0.670834,0 1.144633,0.259415 1.144633,0.259415 0,0 0.353753,0.19327 0.892452,0.19327 0.538694,0 0.986503,-0.203088 0.986503,-0.203088 z"
       id="path4566-9-6-6-1-7"
       inkscape:connector-curvature="0" />
    <rect
       style="fill:#ff913b;fill-opacity:0;stroke-width:0.52916664;stroke-miterlimit:4;stroke-dasharray:none"
       id="rect5212"
       width="4.2333331"
       height="4.2333331"
       x="24.341667"
       y="-101.20833"
       transform="scale(1,-1)" />
    <path
       style="fill:#ff913b;fill-opacity:1;stroke-width:0.22687936"
       d="m 31.411834,100.91245 a 1.8034012,1.8267437 0 0 0 -1.787991,1.60152 l 0.07969,0.0406 c 0,0 0.381093,0.17527 0.840061,0.17527 0.458971,0 0.76081,-0.16679 0.76081,-0.16679 0,0 0.403236,-0.22433 0.974789,-0.22433 0.409189,0 0.753212,0.10887 0.91975,0.1717 a 1.8034012,1.8267437 0 0 0 -1.787109,-1.59796 z"
       id="path4749-9"
       inkscape:connector-curvature="0" />
    <path
       style="fill:#347a79;fill-opacity:1;stroke-width:0.22687936"
       d="m 32.279195,102.79583 c -0.458979,0 -0.758611,0.1668 -0.758611,0.1668 0,0 -0.405443,0.22389 -0.976989,0.22389 -0.404929,0 -0.744111,-0.10718 -0.912707,-0.17082 a 1.8034012,1.8267437 0 0 0 1.780946,1.55023 1.8034012,1.8267437 0 0 0 1.781829,-1.55959 l -0.07704,-0.0388 h -0.0018 c -0.0061,-0.003 -0.380351,-0.17171 -0.835657,-0.17171 z"
       id="path4545-3-1-2"
       inkscape:connector-curvature="0" />
    <g
       id="g5029-0"
       transform="translate(16.139583,-0.41905226)">
      <path
         transform="matrix(0.26458333,0,0,0.26458333,24.359753,96.974958)"
         id="path4967-2"
         d="M 1.9316406,2 V 6.3242188 C 2.5353679,6.2135986 3.2010865,6.1269531 3.9355469,6.1269531 c 2.5354356,0 4.3261719,0.9804688 4.3261719,0.9804688 0,0 1.3370191,0.7304687 3.3730472,0.7304687 0.876215,0 1.655423,-0.146631 2.296875,-0.3085937 V 2 Z"
         style="fill:#c73928;fill-opacity:1;stroke-width:1.99999988;stroke-miterlimit:4;stroke-dasharray:none"
         inkscape:connector-curvature="0" />
      <path
         transform="matrix(0.26458333,0,0,0.26458333,24.359753,96.974958)"
         id="path4963-3"
         d="m 13.931641,9.5839844 c -0.672292,0.1403242 -1.437262,0.2558594 -2.296875,0.2558594 -2.5354133,0 -4.3339848,-0.9824219 -4.3339848,-0.9824219 0,0 -1.3291801,-0.7304688 -3.3652343,-0.7304688 -0.7531336,0 -1.4170915,0.1105739 -2.0039063,0.2402344 V 14 H 13.931641 Z"
         style="fill:#3ca4ab;fill-opacity:1;stroke-width:1.99999988;stroke-miterlimit:4;stroke-dasharray:none"
         inkscape:connector-curvature="0" />
    </g>
    <g
       id="g5519" />
  </g>
</svg>
