{
    "id": "7d22d0d9-32e0-41c1-b1e8-11069a7e314a",
    "clientId": "tuency_client",
    "name": "tuency_client",
    "rootUrl": "http://tuency_client",
    "adminUrl": "http://tuency_client",
    "surrogateAuthRequired": false,
    "enabled": true,
    "alwaysDisplayInConsole": false,
    "clientAuthenticatorType": "client-secret",
    "redirectUris": [
        "http://tuency_client/*"
    ],
    "webOrigins": [
        "http://tuency_client"
    ],
    "notBefore": 0,
    "bearerOnly": false,
    "consentRequired": false,
    "standardFlowEnabled": true,
    "implicitFlowEnabled": false,
    "directAccessGrantsEnabled": true,
    "serviceAccountsEnabled": false,
    "publicClient": true,
    "frontchannelLogout": false,
    "protocol": "openid-connect",
    "attributes": {
        "saml.assertion.signature": "false",
        "saml.force.post.binding": "false",
        "saml.multivalued.roles": "false",
        "saml.encrypt": "false",
        "saml.server.signature": "false",
        "saml.server.signature.keyinfo.ext": "false",
        "exclude.session.state.from.auth.response": "false",
        "saml_force_name_id_format": "false",
        "saml.client.signature": "false",
        "tls.client.certificate.bound.access.tokens": "false",
        "saml.authnstatement": "false",
        "display.on.consent.screen": "false",
        "saml.onetimeuse.condition": "false"
    },
    "authenticationFlowBindingOverrides": {},
    "fullScopeAllowed": true,
    "nodeReRegistrationTimeout": -1,
    "protocolMappers": [
        {
            "name": "username",
            "protocol": "openid-connect",
            "protocolMapper": "oidc-usermodel-property-mapper",
            "consentRequired": false,
            "config": {
                "userinfo.token.claim": "true",
                "user.attribute": "username",
                "id.token.claim": "true",
                "access.token.claim": "true",
                "claim.name": "username",
                "jsonType.label": "String"
            }
        },
        {
            "name": "client roles",
            "protocol": "openid-connect",
            "protocolMapper": "oidc-usermodel-client-role-mapper",
            "consentRequired": false,
            "config": {
                "multivalued": "true",
                "user.attribute": "foo",
                "id.token.claim": "true",
                "access.token.claim": "true",
                "claim.name": "clientroles",
                "jsonType.label": "String",
                "usermodel.clientRoleMapping.clientId": "tuency_client"
            }
        }
    ],
    "defaultClientScopes": [
        "web-origins",
        "role_list",
        "profile",
        "roles",
        "email"
    ],
    "optionalClientScopes": [
        "address",
        "phone",
        "offline_access",
        "microprofile-jwt"
    ],
    "access": {
        "view": true,
        "configure": true,
        "manage": true
    }
}
